<svg width="10px" height="10px" viewBox="0 0 10 10" version="1.1" xmlns="http://www.w3.org/2000/svg" xmlns:xlink="http://www.w3.org/1999/xlink">
    <!-- Generator: Sketch 51.1 (57501) - http://www.bohemiancoding.com/sketch -->
    <desc>Created with Sketch.</desc>
    <defs></defs>
    <g id="Layouts" stroke="none" stroke-width="1" fill="none" fill-rule="evenodd">
        <g id="My-assets---Published-assets-list" transform="translate(-700.000000, -1498.000000)" fill="#4A4A4A" fill-rule="nonzero">
            <g id="Paginator" transform="translate(446.000000, 1479.000000)">
                <polygon id="Triangle-Copy-2" transform="translate(259.000000, 24.000000) rotate(-90.000000) translate(-259.000000, -24.000000) " points="259 29 254 19 264 19"></polygon>
            </g>
        </g>
    </g>
</svg>