<?xml version="1.0" encoding="UTF-8"?>
<svg width="680px" height="530px" viewBox="0 0 680 530" version="1.1" xmlns="http://www.w3.org/2000/svg" xmlns:xlink="http://www.w3.org/1999/xlink">
    <!-- Generator: Sketch 55 (78076) - https://sketchapp.com -->
    <title>img-step-2</title>
    <desc>Created with Sketch.</desc>
    <defs>
        <circle id="path-1" cx="66.5" cy="66.5" r="66.5"></circle>
    </defs>
    <g id="German" stroke="none" stroke-width="1" fill="none" fill-rule="evenodd">
        <g id="UPD-10-10-18---Desktop" transform="translate(-480.000000, -1310.000000)">
            <g id="content" transform="translate(118.000000, 0.000000)">
                <g id="Step2" transform="translate(102.000000, 1180.000000)">
                    <g id="img-step-2" transform="translate(260.000000, 130.000000)">
                        <path d="M1,1 L1,529 L679,529 L679,1 L1,1 Z" id="bg" stroke="#CCCCCC" stroke-width="2" fill="#FFFFFF"></path>
                        <g id="header" transform="translate(2.000000, 9.000000)">
                            <polygon id="Rectangle" fill="#F4F4F4" points="0 11 676 11 676 41 0 41"></polygon>
                            <g id="logo" transform="translate(18.000000, 19.000000)">
                                <circle id="Oval-5" fill="#EB111B" cx="8" cy="8" r="8"></circle>
                                <circle id="Oval-5" fill="#F8A61A" cx="18" cy="8" r="8"></circle>
                                <path d="M13,2 C14.828925,3.46612103 16,5.71898638 16,8.24537095 C16,10.7717555 14.828925,13.0246209 13,14.4907419 C11.171075,13.0246209 10,10.7717555 10,8.24537095 C10,5.71898638 11.171075,3.46612103 13,2 Z" id="Combined-Shape" fill="#FF5F00"></path>
                                <rect id="Rectangle-2" fill="#CCCCCC" x="34" y="2" width="61" height="10"></rect>
                            </g>
                            <path d="M47,4 L47,8.17124146e-14 L23,8.17124146e-14 L23,4 L47,4 Z M56,4 L91,4 L91,8.17124146e-14 L56,8.17124146e-14 L56,4 Z M95,4 L95,8.17124146e-14 L121,8.17124146e-14 L121,4 L95,4 Z M404,0 L438,0 L438,4 L404,4 L404,0 Z M444,0 L478,0 L478,4 L444,4 L444,0 Z M484,0 L518,0 L518,4 L484,4 L484,0 Z M526,0 L550,0 L550,4 L526,4 L526,0 Z M560,0 L594,0 L594,4 L560,4 L560,0 Z M620,0 L654,0 L654,4 L620,4 L620,0 Z" id="Combined-Shape" fill="#EBECED"></path>
                            <path d="M132,28 L132,24 L159,24 L159,28 L132,28 Z M159,24 L159,28 L159,24 Z M172,28 L172,24 L239,24 L239,28 L172,28 Z M251,28 L251,24 L305,24 L305,28 L251,28 Z M317,28 L317,24 L372,24 L372,28 L317,28 Z M372,28 L372,24 L372,28 Z M383,28 L383,24 L440,24 L440,28 L383,28 Z M440,28 L440,24 L440,28 Z M456,28 L504,28 L504,24 L456,24 L456,28 Z M516,28 L554,28 L554,24 L516,24 L516,28 Z" id="Home-Thoughtade-Opti" fill="#CCCCCC"></path>
                        </g>
                        <rect id="Rectangle-2" fill="#E6E6E6" x="55" y="70" width="570" height="160"></rect>
                        <g id="title" transform="translate(130.000000, 90.000000)">
                            <path d="M0,50 L411,50 L411,57 L0,57 L0,50 Z M0,63 L242,63 L242,70 L0,70 L0,63 Z M30,-3.55271368e-15 L152,-3.55271368e-15 L152,14.5 L30,14.5 L30,-3.55271368e-15 Z M162,-3.55271368e-15 L321,-3.55271368e-15 L321,14.5 L162,14.5 L162,-3.55271368e-15 Z M123,20.4457745 L283,20.4457745 L283,35 L123,35 L123,20.4457745 Z M331,-3.55271368e-15 L374,-3.55271368e-15 L374,14.5 L331,14.5 L331,-3.55271368e-15 Z M200.5,123 C201.880712,123 203,124.119288 203,125.5 C203,126.880712 201.880712,128 200.5,128 C199.119288,128 198,126.880712 198,125.5 C198,124.119288 199.119288,123 200.5,123 Z M210.5,123 C211.880712,123 213,124.119288 213,125.5 C213,126.880712 211.880712,128 210.5,128 C209.119288,128 208,126.880712 208,125.5 C208,124.119288 209.119288,123 210.5,123 Z M220.5,123 C221.880712,123 223,124.119288 223,125.5 C223,126.880712 221.880712,128 220.5,128 C219.119288,128 218,126.880712 218,125.5 C218,124.119288 219.119288,123 220.5,123 Z" id="Combined-Shape" fill="#F5F5F5"></path>
                            <polygon id="Combined-Shape" fill="#FCFCFC" points="170 90 250 90 250 110 170 110"></polygon>
                        </g>
                        <path d="M110,295 L177,295 L177,305 L110,305 L110,295 Z M75,295 C86.045695,295 95,303.954305 95,315 C95,326.045695 86.045695,335 75,335 C63.954305,335 55,326.045695 55,315 C55,303.954305 63.954305,295 75,295 Z M110,317 L350,317 L350,323 L110,323 L110,317 Z M110,329 L263,329 L263,335 L110,335 L110,329 Z M184,295 L287,295 L287,305 L184,305 L184,295 Z" id="content" fill="#EBECED"></path>
                        <path d="M110,361 L137,361 L137,371 L110,371 L110,361 Z M75,361 C86.045695,361 95,369.954305 95,381 C95,392.045695 86.045695,401 75,401 C63.954305,401 55,392.045695 55,381 C55,369.954305 63.954305,361 75,361 Z M110,383 L260,383 L260,389 L110,389 L110,383 Z M110,395 L283,395 L283,401 L110,401 L110,395 Z M144,361 L207,361 L207,371 L144,371 L144,361 Z M267,383 L347,383 L347,389 L267,389 L267,383 Z" id="content" fill="#EBECED"></path>
                        <path d="M110,431 L217,431 L217,441 L110,441 L110,431 Z M75,431 C86.045695,431 95,439.954305 95,451 C95,462.045695 86.045695,471 75,471 C63.954305,471 55,462.045695 55,451 C55,439.954305 63.954305,431 75,431 Z M110,453 L350,453 L350,459 L110,459 L110,453 Z M110,465 L303,465 L303,471 L110,471 L110,465 Z M310,465 L350,465 L350,471 L310,471 L310,465 Z" id="content" fill="#EBECED"></path>
                        <g id="asset" transform="translate(440.000000, 260.000000)">
                            <path d="M0,30 L51.8823529,30 L180,30 L180,80 L0,80 L0,30 Z M0,90 L94,90 L94,97 L0,97 L0,90 Z M100,90 L180,90 L180,97 L100,97 L100,90 Z M0,103 L76,103 L76,110 L0,110 L0,103 Z" id="Combined-Shape" fill="#F2F2F2"></path>
                            <path d="M0,130 L51.8823529,130 L180,130 L180,180 L0,180 L0,130 Z M0,190 L144,190 L144,197 L0,197 L0,190 Z M150,190 L180,190 L180,197 L150,197 L150,190 Z M130,203 L168,203 L168,210 L130,210 L130,203 Z M0,203 L126,203 L126,210 L0,210 L0,203 Z" id="Combined-Shape" fill="#F2F2F2"></path>
                            <path d="M8,1.13686838e-13 C12.418278,1.12875213e-13 16,3.581722 16,8 C16,12.418278 12.418278,16 8,16 C3.581722,16 5.41083001e-16,12.418278 0,8 C-5.41083001e-16,3.581722 3.581722,1.14498462e-13 8,1.13686838e-13 Z M25,2 L70,2 L70,14 L25,14 L25,2 Z M75,2 L130,2 L130,14 L75,14 L75,2 Z" id="Combined-Shape" fill="#E6E6E6"></path>
                        </g>
                        <g id="focus" transform="translate(51.000000, 199.000000)">
                            <mask id="mask-2" fill="white">
                                <use xlink:href="#path-1"></use>
                            </mask>
                            <use id="Oval" fill="#FFFFFF" xlink:href="#path-1"></use>
                            <rect id="Rectangle-2" fill-opacity="0.57" fill="#E6E6E6" mask="url(#mask-2)" x="14" y="-136" width="570" height="160"></rect>
                            <g id="Group" mask="url(#mask-2)">
                                <g transform="translate(5.000000, 55.000000)">
                                    <text id="Meine-Favoriten" font-family="AccordAlt-Light" font-size="14" font-weight="300" letter-spacing="0.1166667">
                                        <tspan x="24" y="16" fill="#333333">Meine Favoriten</tspan>
                                    </text>
                                    <g id="icon/subscribe-white" stroke-width="1">
                                        <path d="M10.5203082,16.2860849 L10.5209839,16.2855116 C10.9643852,15.909949 11.7495063,15.2299392 12.5399299,14.5226721 C13.8156275,13.3811843 14.8005922,12.440744 15.3028304,11.8576714 C16.4392218,10.5374933 16.4318175,8.6533722 15.3007754,7.47080035 C14.1570744,6.2761006 12.3053535,6.2760443 11.1622632,7.47083638 L10.4898074,8.17313738 L10.1286637,7.79596541 L9.81739638,7.47088343 C8.67434199,6.27599183 6.82233383,6.27599183 5.67927694,7.47093171 C4.54775959,8.65344666 4.54035619,10.53729 5.67708598,11.8578195 C6.17912752,12.44085 7.16366379,13.3809805 8.4394378,14.5226325 C9.22823759,15.2285058 9.95861169,15.8612091 10.4586249,16.2860281 C10.4660298,16.2923203 10.4717111,16.2943878 10.4777707,16.2943878 C10.4794965,16.2943162 10.4794965,16.2943162 10.5146988,16.2948039 C10.5092107,16.2945281 10.5112239,16.293807 10.5203082,16.2860849 Z M11.167642,17.0482917 C11.1675293,17.0483871 11.1674166,17.0484826 11.167304,17.048578 L11.1679796,17.0480046 C11.1678671,17.0481003 11.1677545,17.0481959 11.167642,17.0482915 Z" id="Oval" stroke="#FA9D3B"></path>
                                    </g>
                                </g>
                            </g>
                            <path d="M79,102 L146,102 L146,116 L79,116 L79,102 Z M29,102 L29,102 C42.8071187,102 54,113.192881 54,127 L54,127 C54,140.807119 42.8071187,152 29,152 L29,152 C15.1928813,152 4,140.807119 4,127 L4,127 C4,113.192881 15.1928813,102 29,102 Z" id="content" fill="#EBECED" opacity="0.831775484" mask="url(#mask-2)"></path>
                            <circle id="Oval" stroke="#008E9A" stroke-width="3" mask="url(#mask-2)" cx="66.5" cy="66.5" r="65"></circle>
                        </g>
                    </g>
                </g>
            </g>
        </g>
    </g>
</svg>