<?xml version="1.0" encoding="UTF-8"?>
<svg width="680px" height="470px" viewBox="0 0 680 470" version="1.1" xmlns="http://www.w3.org/2000/svg" xmlns:xlink="http://www.w3.org/1999/xlink">
    <!-- Generator: Sketch 48.2 (47327) - http://www.bohemiancoding.com/sketch -->
    <title>img-step-1</title>
    <desc>Created with Sketch.</desc>
    <defs>
        <circle id="path-1" cx="65" cy="65" r="65"></circle>
        <circle id="path-3" cx="65" cy="65" r="65"></circle>
    </defs>
    <g id="OPTION-1" stroke="none" stroke-width="1" fill="none" fill-rule="evenodd" transform="translate(-480.000000, -640.000000)">
        <g id="content" transform="translate(118.000000, 0.000000)">
            <g id="Step1" transform="translate(102.000000, 579.000000)">
                <g id="img-step-1" transform="translate(260.000000, 61.000000)">
                    <path d="M1,11 L1,469 L679,469 L679,11 L1,11 Z" id="bg" stroke="#CCCCCC" stroke-width="2"></path>
                    <g id="header" transform="translate(2.000000, 19.000000)">
                        <rect id="Rectangle" fill="#F4F4F4" x="0" y="11" width="676" height="30"></rect>
                        <g id="logo" transform="translate(18.000000, 19.000000)">
                            <circle id="Oval-5" fill="#EB111B" cx="8" cy="8" r="8"></circle>
                            <circle id="Oval-5" fill="#F8A61A" cx="18" cy="8" r="8"></circle>
                            <path d="M13,2 C14.828925,3.46612103 16,5.71898638 16,8.24537095 C16,10.7717555 14.828925,13.0246209 13,14.4907419 C11.171075,13.0246209 10,10.7717555 10,8.24537095 C10,5.71898638 11.171075,3.46612103 13,2 Z" id="Combined-Shape" fill="#FF5F00"></path>
                            <rect id="Rectangle-2" fill="#CCCCCC" x="34" y="2" width="61" height="10"></rect>
                        </g>
                        <path d="M47,4 L47,8.17124146e-14 L23,8.17124146e-14 L23,4 L47,4 Z M56,4 L91,4 L91,8.17124146e-14 L56,8.17124146e-14 L56,4 Z M95,4 L95,8.17124146e-14 L121,8.17124146e-14 L121,4 L95,4 Z M404,0 L438,0 L438,4 L404,4 L404,0 Z M444,0 L478,0 L478,4 L444,4 L444,0 Z M484,0 L518,0 L518,4 L484,4 L484,0 Z M526,0 L550,0 L550,4 L526,4 L526,0 Z M560,0 L594,0 L594,4 L560,4 L560,0 Z M620,0 L654,0 L654,4 L620,4 L620,0 Z" id="Combined-Shape" fill="#EBECED"></path>
                        <path d="M132,28 L132,24 L159,24 L159,28 L132,28 Z M159,24 L159,28 L159,24 Z M172,28 L172,24 L239,24 L239,28 L172,28 Z M251,28 L251,24 L305,24 L305,28 L251,28 Z M317,28 L317,24 L372,24 L372,28 L317,28 Z M372,28 L372,24 L372,28 Z M383,28 L383,24 L440,24 L440,28 L383,28 Z M440,28 L440,24 L440,28 Z M456,28 L504,28 L504,24 L456,24 L456,28 Z M516,28 L554,28 L554,24 L516,24 L516,28 Z" id="Home-Thoughtade-Opti" fill="#CCCCCC"></path>
                    </g>
                    <g id="title" transform="translate(55.000000, 110.000000)">
                        <path d="M0,50 L535,50 L535,60 L0,60 L0,50 Z M0,70 L315,70 L315,80 L0,80 L0,70 Z" id="Combined-Shape" fill="#F4F4F4"></path>
                        <path d="M194,0 L316,0 L316,15 L194,15 L194,0 Z M326,0 L376,0 L376,15 L326,15 L326,0 Z" id="Combined-Shape" fill="#EBEBEB"></path>
                    </g>
                    <path d="M95,290 C72.90861,290 55,272.09139 55,250 C55,227.90861 72.90861,210 95,210 C117.09139,210 135,227.90861 135,250 C135,272.09139 117.09139,290 95,290 Z M55,300 L328,300 L328,310 L55,310 L55,300 Z M55,340 L328,340 L328,350 L55,350 L55,340 Z M55,360 L328,360 L328,370 L55,370 L55,360 Z M55,320 L328,320 L328,330 L55,330 L55,320 Z M55,380 L216,380 L216,390 L55,390 L55,380 Z" id="content" fill="#EBECED"></path>
                    <g id="asset" transform="translate(420.000000, 200.000000)">
                        <rect id="Rectangle-2" fill="#F4F4F4" x="0" y="0" width="210" height="200"></rect>
                        <path d="M20,20 L90,20 L90,30 L20,30 L20,20 Z M20,50 L69,50 L190,50 L190,105 L20,105 L20,50 Z M20,120 L112,120 L112,130 L20,130 L20,120 Z M20,140 L158,140 L158,150 L20,150 L20,140 Z M20,160 L158,160 L158,170 L20,170 L20,160 Z" id="Combined-Shape" fill="#E3E3E3"></path>
                    </g>
                    <g id="focus" transform="translate(544.000000, 0.000000)">
                        <mask id="mask-2" fill="white">
                            <use xlink:href="#path-1"></use>
                        </mask>
                        <g id="Oval">
                            <use fill="#FFFFFF" fill-rule="evenodd" xlink:href="#path-1"></use>
                            <circle stroke="#008E9A" stroke-width="3" cx="65" cy="65" r="63.5"></circle>
                        </g>
                        <rect id="Rectangle" fill="#F4F4F4" mask="url(#mask-2)" x="11" y="-14" width="133" height="35"></rect>
                        <rect id="t" fill="#F8A61A" mask="url(#mask-2)" x="7" y="50" width="114" height="30" rx="1"></rect>
                        <g id="icon/subscribe-white" mask="url(#mask-2)" fill="#FFFFFF">
                            <g transform="translate(96.000000, 55.000000)" id="Oval">
                                <path d="M14.9350244,11.0762384 C13.8039512,12.3296691 10.4693171,15.0374063 10.3277561,15.1518589 C10.2286829,15.2322482 10.1087805,15.2731241 9.99009756,15.2674307 C9.9864878,15.2676253 9.98268293,15.2676253 9.97882927,15.2676253 C9.86395122,15.2676253 9.74829268,15.2297664 9.6522439,15.1518589 C9.51087805,15.0372117 6.17643902,12.3296691 5.04590244,11.0764331 C3.80619512,9.70173723 3.81439024,7.72485158 5.06478049,6.47750365 C6.34087805,5.20412165 8.41785366,5.20412165 9.694,6.47750365 L9.99029268,6.77288078 L10.2867805,6.477309 C11.562878,5.20412165 13.6394634,5.2043163 14.9161463,6.477309 C16.1661463,7.72485158 16.1743415,9.70193187 14.9350244,11.0762384"></path>
                            </g>
                        </g>
                        <path d="M17.8505,69 L17.8505,60.225 L19.619,60.225 L22.8995,66.084 L22.8995,60.225 L24.5195,60.225 L24.5195,69 L22.7375,69 L19.4705,63.1545 L19.4705,69 L17.8505,69 Z M32.9665,64.9365 L32.9665,64.2885 C32.9665,62.2095 32.17,61.5345 30.982,61.5345 C29.794,61.5345 29.011,62.2095 29.011,64.2885 L29.011,64.9365 C29.011,67.0155 29.794,67.6905 30.982,67.6905 C32.17,67.6905 32.9665,67.0155 32.9665,64.9365 Z M27.3775,64.9365 L27.3775,64.2885 C27.3775,61.224 28.903,60.0225 30.982,60.0225 C33.0745,60.0225 34.6,61.224 34.6,64.2885 L34.6,64.9365 C34.6,68.001 33.0745,69.2025 30.982,69.2025 C28.903,69.2025 27.3775,68.001 27.3775,64.9365 Z M36.729,61.737 L36.729,60.225 L44.1135,60.225 L44.1135,61.737 L41.238,61.737 L41.238,69 L39.6045,69 L39.6045,61.737 L36.729,61.737 Z M46.4854999,69 L46.4854999,60.225 L48.1054999,60.225 L48.1054999,69 L46.4854999,69 Z M52.8264999,65.1255 L52.8264999,69 L51.2064999,69 L51.2064999,60.225 L57.5649999,60.225 L57.5649999,61.737 L52.8264999,61.737 L52.8264999,63.627 L57.0249999,63.627 L57.0249999,65.1255 L52.8264999,65.1255 Z M67.5509999,60.225 L64.2029999,65.598 L64.2029999,69 L62.5694999,69 L62.5694999,65.625 L59.2079999,60.225 L61.0439999,60.225 L63.3794999,64.032 L65.7149999,60.225 L67.5509999,60.225 Z M74.1444998,69 L74.1444998,60.225 L75.8724998,60.225 L78.1944998,64.1805 L80.5164998,60.225 L82.2444998,60.225 L82.2444998,69 L80.6244998,69 L80.6244998,63.0735 L78.1944998,67.3395 L75.7644998,63.0735 L75.7644998,69 L74.1444998,69 Z M86.9654998,65.1255 L86.9654998,67.5015 L91.7039998,67.5015 L91.7039998,69 L85.3454998,69 L85.3454998,60.225 L91.7039998,60.225 L91.7039998,61.737 L86.9654998,61.737 L86.9654998,63.627 L91.1639998,63.627 L91.1639998,65.1255 L86.9654998,65.1255 Z" id="Notify-me" fill="#FFFFFF" mask="url(#mask-2)"></path>
                        <mask id="mask-4" fill="white">
                            <use xlink:href="#path-3"></use>
                        </mask>
                        <circle stroke="#008E9A" stroke-width="3" cx="65" cy="65" r="63.5"></circle>
                    </g>
                </g>
            </g>
        </g>
    </g>
</svg>